<?xml version="1.0" encoding="UTF-8" standalone="no"?>
<svg width="312px" height="78px" viewBox="0 0 312 78" version="1.1" xmlns="http://www.w3.org/2000/svg" xmlns:xlink="http://www.w3.org/1999/xlink">
    <!-- Generator: Sketch 3.6 (26304) - http://www.bohemiancoding.com/sketch -->
    <title>Group</title>
    <desc>Created with Sketch.</desc>
    <defs></defs>
    <g id="Page-1" stroke="none" stroke-width="1" fill="none" fill-rule="evenodd">
        <g id="Group">
            <g id="logo">
                <path d="M68.9047715,64.0355117 C74.5818888,57.2614204 78,48.5298815 78,39 C78,29.4401202 74.5603359,20.6836171 68.8510929,13.9005759 L68.8510929,13.9005759 L62.7552055,19.9964633 C66.9256926,25.2029803 69.42,31.8102018 69.42,39 C69.42,46.1597403 66.9465046,52.7417648 62.8074234,57.9381637 L68.9047715,64.0355117 L68.9047715,64.0355117 Z" id="attachment" fill="#CCCCCC"></path>
                <path d="M65.6887477,67.4380074 C58.7121771,73.9880205 49.3246126,78 39,78 C17.4608948,78 0,60.5391052 0,39 C0,17.4608948 17.4608948,6.39488462e-14 39,6.39488462e-14 C49.2946933,6.39488462e-14 58.6577616,3.98876092 65.6280357,10.5051136 L59.5566264,16.5765229 C54.1428154,11.6107695 46.9253448,8.58 39,8.58 C22.1994979,8.58 8.58,22.1994979 8.58,39 C8.58,55.8005021 22.1994979,69.42 39,69.42 C46.9552723,69.42 54.1973143,66.3662978 59.6178798,61.3671396 L65.6887477,67.4380074 L65.6887477,67.4380074 Z" id="c" fill="#2D83E9"></path>
            </g>
            <path d="M112.10784,21.06624 C101.7744,21.06624 93.73728,28.704 93.73728,38.63808 C93.73728,48.672 101.67456,56.4096 111.90816,56.4096 C116.85024,56.4096 121.89216,54.1632 125.43648,50.6688 L121.94208,46.77504 C119.29632,49.32096 115.70208,50.9184 112.20768,50.9184 C105.21888,50.9184 99.72768,45.47712 99.72768,38.58816 C99.72768,31.6992 105.21888,26.30784 112.20768,26.30784 C115.752,26.30784 119.39616,28.00512 121.94208,30.75072 L125.38656,26.4576 C121.992,23.11296 117.04992,21.06624 112.10784,21.06624 L112.10784,21.06624 Z M137.06784,56.16 L137.06784,19.11936 L131.32704,19.11936 L131.32704,56.16 L137.06784,56.16 Z M148.64928,18.52032 C146.75232,18.52032 145.30464,19.968 145.30464,22.01472 C145.30464,24.01152 146.75232,25.4592 148.64928,25.4592 C150.54624,25.4592 151.99392,24.01152 151.99392,22.01472 C151.99392,19.968 150.54624,18.52032 148.64928,18.52032 L148.64928,18.52032 Z M151.49472,56.16 L151.49472,29.60256 L145.80384,29.60256 L145.80384,56.16 L151.49472,56.16 Z M170.86368,29.40288 C162.97632,29.40288 157.48512,34.89408 157.48512,42.9312 C157.48512,50.9184 162.97632,56.35968 170.86368,56.35968 C175.9056,56.35968 179.74944,54.56256 182.1456,51.4176 L178.95072,48.22272 C177.1536,50.31936 174.45792,51.4176 171.11328,51.4176 C166.52064,51.4176 163.22592,47.97312 163.22592,42.9312 C163.22592,37.88928 166.52064,34.4448 171.11328,34.4448 C174.30816,34.39488 176.85408,35.54304 178.70112,37.44 L181.84608,33.74592 C179.4,30.9504 175.656,29.40288 170.86368,29.40288 L170.86368,29.40288 Z M197.4492,43.97952 L205.23672,56.16 L212.02584,56.16 L201.4428,39.88608 L211.27704,29.60256 L204.6876,29.60256 L192.9564,41.48352 L192.9564,19.11936 L187.2156,19.11936 L187.2156,56.16 L192.9564,56.16 L192.9564,48.72192 L197.4492,43.97952 Z M224.60568,29.35296 C219.51384,29.35296 214.82136,31.64928 214.82136,37.04064 C214.77144,46.62528 228.74904,43.58016 228.74904,49.02144 C228.74904,51.01824 226.85208,51.86688 224.406,51.86688 C221.51064,51.86688 217.81656,50.61888 215.52024,48.57216 L213.47352,52.6656 C216.11928,55.06176 220.26264,56.35968 224.1564,56.35968 C229.49784,56.35968 234.34008,53.9136 234.34008,48.47232 C234.39,38.83776 220.26264,41.48352 220.26264,36.59136 C220.26264,34.6944 221.91,33.9456 224.1564,33.9456 C226.50264,33.9456 229.44792,34.84416 231.79416,36.29184 L233.8908,32.04864 C231.49464,30.35136 227.95032,29.35296 224.60568,29.35296 L224.60568,29.35296 Z M242.97624,18.52032 C241.07928,18.52032 239.6316,19.968 239.6316,22.01472 C239.6316,24.01152 241.07928,25.4592 242.97624,25.4592 C244.8732,25.4592 246.32088,24.01152 246.32088,22.01472 C246.32088,19.968 244.8732,18.52032 242.97624,18.52032 L242.97624,18.52032 Z M245.82168,56.16 L245.82168,29.60256 L240.1308,29.60256 L240.1308,56.16 L245.82168,56.16 Z M278.26968,29.60256 L272.5788,29.60256 L272.5788,33.89568 C270.73176,31.00032 267.68664,29.35296 263.5932,29.40288 C256.55448,29.4528 251.81208,34.54464 251.81208,42.03264 C251.81208,49.6704 256.6044,54.86208 263.79288,54.86208 C267.78648,54.86208 270.78168,53.26464 272.5788,50.36928 L272.5788,53.71392 C272.5788,58.30656 269.28408,61.25184 264.24216,61.25184 C260.99736,61.25184 258.40152,60.20352 255.90552,58.35648 L253.45944,62.49984 C256.70424,64.69632 260.3484,65.99424 264.49176,65.99424 C272.8284,65.99424 278.26968,61.20192 278.26968,53.56416 L278.26968,29.60256 Z M264.94104,50.36928 C260.3484,50.36928 257.25336,46.97472 257.20344,42.1824 C257.25336,37.44 260.39832,34.04544 264.94104,34.04544 C269.43384,34.04544 272.5788,37.39008 272.5788,42.1824 C272.5788,46.97472 269.43384,50.36928 264.94104,50.36928 L264.94104,50.36928 Z M301.782,29.40288 C297.2892,29.40288 293.89464,31.00032 291.99768,34.6944 L291.99768,29.60256 L286.25688,29.60256 L286.25688,56.16 L291.99768,56.16 L291.99768,42.03264 C292.39704,37.88928 295.14264,34.84416 299.5356,34.79424 C303.5292,34.79424 305.92536,37.24032 305.92536,41.23392 L305.92536,56.16 L311.66616,56.16 L311.66616,39.63648 C311.66616,33.29664 307.97208,29.40288 301.782,29.40288 L301.782,29.40288 Z" id="Clicksign" fill="#000000"></path>
        </g>
    </g>
</svg>